Matrix:
 0.00 0.00 1.79 0.00 1.79 0.00 1.79 0.00 0.00 0.00 0.00 0.00 0.00 0.00 0.00 0.00 0.00 0.00 0.00 0.00 0.00
 0.00 0.00 2.20 0.00 0.00 0.00 0.00 0.00 0.00 0.00 0.00 0.00 0.00 0.00 0.00 0.00 2.20 0.00 0.00 0.00 2.20
 0.00 0.00 0.00 0.00 0.00 0.00 0.00 0.00 0.00 0.00 2.20 2.20 0.00 0.00 0.00 0.00 0.00 0.00 0.00 0.00 0.00
 0.00 0.69 0.00 0.69 0.00 0.00 0.00 0.69 0.00 0.69 0.69 0.69 0.69 0.69 0.69 0.00 0.00 0.00 0.00 0.00 0.00
 0.49 0.49 0.00 0.49 0.00 0.00 0.00 0.49 0.00 0.49 0.49 0.49 0.49 0.49 0.49 0.00 0.00 0.49 0.49 0.00 0.49
 0.00 0.00 2.20 0.00 0.00 0.00 2.20 0.00 0.00 0.00 0.00 0.00 0.00 0.00 0.00 0.00 0.00 0.00 0.00 0.00 0.00
 0.00 0.00 0.00 0.00 0.00 0.00 0.00 0.00 0.00 0.00 0.00 0.00 0.00 0.00 0.00 2.20 2.20 0.00 0.00 0.00 0.00
 0.00 0.00 0.00 0.00 2.20 2.20 0.00 0.00 0.00 0.00 0.00 0.00 0.00 0.00 0.00 0.00 0.00 0.00 0.00 0.00 0.00
 0.00 0.00 0.00 0.00 0.00 0.00 0.00 2.20 0.00 0.00 0.00 0.00 0.00 2.20 0.00 0.00 0.00 0.00 0.00 0.00 0.00
 0.00 0.00 0.00 0.00 0.00 0.00 0.00 0.00 2.20 0.00 0.00 0.00 2.20 0.00 0.00 0.00 0.00 0.00 0.00 0.00 0.00
 0.00 0.00 0.00 0.00 0.00 0.00 0.00 1.79 0.00 1.79 0.00 0.00 0.00 0.00 0.00 0.00 0.00 1.79 0.00 0.00 0.00
 0.00 0.00 0.00 0.00 0.00 0.00 0.00 0.00 0.00 0.00 2.20 2.20 0.00 0.00 0.00 0.00 0.00 0.00 0.00 0.00 0.00
 0.00 0.00 0.00 2.20 0.00 0.00 0.00 0.00 0.00 0.00 0.00 0.00 2.20 0.00 0.00 0.00 0.00 0.00 0.00 0.00 0.00
 0.00 0.00 0.00 0.00 0.00 1.79 1.79 0.00 0.00 0.00 0.00 0.00 0.00 0.00 0.00 1.79 0.00 0.00 0.00 0.00 0.00
 0.00 0.00 0.00 0.00 0.00 1.79 0.00 1.79 1.79 0.00 0.00 0.00 0.00 0.00 0.00 0.00 0.00 0.00 0.00 0.00 0.00
 0.00 0.00 1.50 0.00 0.00 0.00 0.00 0.00 0.00 0.00 1.50 1.50 0.00 0.00 0.00 0.00 1.50 0.00 1.50 1.50 0.00
 0.00 0.00 1.44 0.00 0.00 0.00 0.00 0.00 0.00 0.00 1.44 1.44 0.00 0.00 0.00 0.00 1.44 0.00 0.00 0.00 1.44
 0.00 0.00 1.79 0.00 1.79 0.00 1.79 0.00 0.00 0.00 0.00 0.00 0.00 0.00 0.00 0.00 0.00 0.00 0.00 0.00 0.00
 0.00 0.00 2.20 0.00 0.00 0.00 0.00 0.00 0.00 0.00 0.00 0.00 0.00 0.00 0.00 0.00 2.20 0.00 0.00 0.00 2.20
 0.00 0.00 0.00 0.00 0.00 0.00 0.00 0.00 0.00 0.00 2.20 2.20 0.00 0.00 0.00 0.00 0.00 0.00 0.00 0.00 0.00
 0.00 0.69 0.00 0.69 0.00 0.00 0.00 0.69 0.00 0.69 0.69 0.69 0.69 0.69 0.69 0.00 0.00 0.00 0.00 0.00 0.00
 0.49 0.49 0.00 0.49 0.00 0.00 0.00 0.49 0.00 0.49 0.49 0.49 0.49 0.49 0.49 0.00 0.00 0.49 0.49 0.00 0.49
 0.00 0.00 2.20 0.00 0.00 0.00 2.20 0.00 0.00 0.00 0.00 0.00 0.00 0.00 0.00 0.00 0.00 0.00 0.00 0.00 0.00
 0.00 0.00 0.00 0.00 0.00 0.00 0.00 0.00 0.00 0.00 0.00 0.00 0.00 0.00 0.00 2.20 2.20 0.00 0.00 0.00 0.00
 0.00 0.00 0.00 0.00 2.20 2.20 0.00 0.00 0.00 0.00 0.00 0.00 0.00 0.00 0.00 0.00 0.00 0.00 0.00 0.00 0.00
 0.00 0.00 0.00 0.00 0.00 0.00 0.00 2.20 0.00 0.00 0.00 0.00 0.00 2.20 0.00 0.00 0.00 0.00 0.00 0.00 0.00
 0.00 0.00 0.00 0.00 0.00 0.00 0.00 0.00 2.20 0.00 0.00 0.00 2.20 0.00 0.00 0.00 0.00 0.00 0.00 0.00 0.00
 0.00 0.00 0.00 0.00 0.00 0.00 0.00 1.79 0.00 1.79 0.00 0.00 0.00 0.00 0.00 0.00 0.00 1.79 0.00 0.00 0.00
 0.00 0.00 0.00 0.00 0.00 0.00 0.00 0.00 0.00 0.00 2.20 2.20 0.00 0.00 0.00 0.00 0.00 0.00 0.00 0.00 0.00
 0.00 0.00 0.00 2.20 0.00 0.00 0.00 0.00 0.00 0.00 0.00 0.00 2.20 0.00 0.00 0.00 0.00 0.00 0.00 0.00 0.00
 0.00 0.00 0.00 0.00 0.00 1.79 1.79 0.00 0.00 0.00 0.00 0.00 0.00 0.00 0.00 1.79 0.00 0.00 0.00 0.00 0.00
 0.00 0.00 0.00 0.00 0.00 1.79 0.00 1.79 1.79 0.00 0.00 0.00 0.00 0.00 0.00 0.00 0.00 0.00 0.00 0.00 0.00
 0.00 0.00 1.50 0.00 0.00 0.00 0.00 0.00 0.00 0.00 1.50 1.50 0.00 0.00 0.00 0.00 1.50 0.00 1.50 1.50 0.00
 0.00 0.00 1.44 0.00 0.00 0.00 0.00 0.00 0.00 0.00 1.44 1.44 0.00 0.00 0.00 0.00 1.44 0.00 0.00 0.00 1.44

M: 34x21

Query:

 0.00
 1.95
 0.00
 0.00
 0.00
 0.00
 0.00
 0.00
 0.00
 0.00
 0.00
 1.95
 0.00
 0.00
 0.00
 1.44
 0.00
 0.00
 1.95
 0.00
 0.00
 0.00
 0.00
 0.00
 0.00
 0.00
 0.00
 0.00
 1.95
 0.00
 0.00
 0.00
 1.44
 0.00

Q: 34x1

K: 34x21
S: 21x21
D: 21x21

s = 4

KS: 34x4

 0.14 0.29 0.04 0.17
 0.29 0.23 -0.12 -0.32
 0.23 -0.28 0.02 0.21
 0.09 -0.13 0.18 -0.06
 0.09 -0.09 0.13 -0.08
 0.16 0.28 -0.00 0.08
 0.12 0.12 -0.03 -0.14
 0.03 0.16 0.19 0.28
 0.02 -0.03 0.28 -0.13
 0.01 -0.02 0.22 -0.17
 0.02 -0.03 0.26 -0.13
 0.23 -0.28 0.02 0.21
 0.02 -0.05 0.16 -0.19
 0.06 0.23 0.16 0.24
 0.02 0.06 0.37 0.02
 0.35 -0.08 -0.06 0.00
 0.33 -0.03 -0.07 -0.07
 0.14 0.29 0.04 0.17
 0.29 0.23 -0.12 -0.32
 0.23 -0.28 0.02 0.21
 0.09 -0.13 0.18 -0.06
 0.09 -0.09 0.13 -0.08
 0.16 0.28 -0.00 0.08
 0.12 0.12 -0.03 -0.14
 0.03 0.16 0.19 0.28
 0.02 -0.03 0.28 -0.13
 0.01 -0.02 0.22 -0.17
 0.02 -0.03 0.26 -0.13
 0.23 -0.28 0.02 0.21
 0.02 -0.05 0.16 -0.19
 0.06 0.23 0.16 0.24
 0.02 0.06 0.37 0.02
 0.35 -0.08 -0.06 0.00
 0.33 -0.03 -0.07 -0.07

SS: 4x4

 9.03 0.00 0.00 0.00
 0.00 6.92 0.00 0.00
 0.00 0.00 6.56 0.00
 0.00 0.00 0.00 5.60

DST: 4x21

 0.01 0.02 0.50 0.03 0.07 0.04 0.16 0.05 0.01 0.03 0.47 0.47 0.04 0.03 0.02 0.08 0.42 0.02 0.13 0.12 0.25
 -0.01 -0.04 0.43 -0.07 0.25 0.25 0.45 -0.05 0.02 -0.06 -0.44 -0.44 -0.08 -0.06 -0.04 0.19 0.17 -0.03 -0.05 -0.03 0.12
 0.02 0.06 -0.12 0.17 0.15 0.42 0.11 0.59 0.35 0.20 0.03 0.03 0.32 0.25 0.06 0.07 -0.15 0.16 -0.01 -0.03 -0.09
 -0.01 -0.03 -0.12 -0.18 0.32 0.38 0.32 -0.20 -0.12 -0.11 0.27 0.27 -0.31 -0.13 -0.03 0.04 -0.40 -0.10 -0.01 0.00 -0.31

QS: 1x4

 0.33 -0.06 -0.08 -0.08

Similarities: 
Doc 1: 0.3085681965418015
Doc 2: 0.25408218307528513
Doc 3: 0.6593124476268865
Doc 4: 0.1519164844497004
Doc 5: -0.18226122596413627
Doc 6: -0.29216542254964667
Doc 7: -0.038909731073709895
Doc 8: -0.07031054563890317
Doc 9: -0.12606477257777324
Doc 10: 0.05868812775445511
Doc 11: 0.6372821164212994
Doc 12: 0.6372821164212994
Doc 13: 0.0867208900844291
Doc 14: 0.03315731516661477
Doc 15: 0.25408218307528474
Doc 16: 0.08199055737605151
Doc 17: 0.77708749190074
Doc 18: 0.0160427562395957
Doc 19: 0.9578252958420596
Doc 20: 0.9685309368071704
Doc 21: 0.7159417944759936
